Simulation/tb_lfsr_axi.vcd
$date
	Mon Jul 14 19:06:41 2025
$end
$version
	Icarus Verilog
$end
$timescale
	1ps
$end
$scope module tb_lfsr_axi $end
$var wire 1 ! s_axi_wready $end
$var wire 1 " s_axi_rvalid $end
$var wire 8 # s_axi_rdata [7:0] $end
$var wire 1 $ s_axi_bvalid $end
$var wire 2 % s_axi_bresp [1:0] $end
$var wire 1 & s_axi_awready $end
$var wire 1 ' s_axi_arready $end
$var parameter 32 ( ADDR_WIDTH $end
$var parameter 32 ) DATA_WIDTH $end
$var reg 1 * clk $end
$var reg 8 + read_data [7:0] $end
$var reg 1 , resetslave $end
$var reg 4 - s_axi_araddr [3:0] $end
$var reg 1 . s_axi_arvalid $end
$var reg 4 / s_axi_awaddr [3:0] $end
$var reg 1 0 s_axi_awvalid $end
$var reg 1 1 s_axi_bready $end
$var reg 1 2 s_axi_rready $end
$var reg 8 3 s_axi_wdata [7:0] $end
$var reg 1 4 s_axi_wvalid $end
$var integer 32 5 i [31:0] $end
$scope module dut $end
$var wire 1 * clk $end
$var wire 1 , resetslave $end
$var wire 1 6 rst_lfsr $end
$var wire 4 7 s_axi_araddr [3:0] $end
$var wire 1 . s_axi_arvalid $end
$var wire 4 8 s_axi_awaddr [3:0] $end
$var wire 1 0 s_axi_awvalid $end
$var wire 1 1 s_axi_bready $end
$var wire 1 2 s_axi_rready $end
$var wire 8 9 s_axi_wdata [7:0] $end
$var wire 1 4 s_axi_wvalid $end
$var wire 8 : taps_reg [7:0] $end
$var wire 8 ; seed_reg [7:0] $end
$var wire 1 ! s_axi_wready $end
$var wire 1 " s_axi_rvalid $end
$var wire 8 < s_axi_rdata [7:0] $end
$var wire 1 $ s_axi_bvalid $end
$var wire 2 = s_axi_bresp [1:0] $end
$var wire 1 & s_axi_awready $end
$var wire 1 ' s_axi_arready $end
$var wire 1 > load $end
$var wire 8 ? lfsr_out [7:0] $end
$var wire 1 @ enable $end
$var wire 8 A ctrl_reg [7:0] $end
$var parameter 32 B ADDR_WIDTH $end
$var parameter 32 C DATA_WIDTH $end
$scope module u_axi_slave $end
$var wire 1 * clk $end
$var wire 1 , resetn $end
$var wire 4 D s_axi_araddr [3:0] $end
$var wire 1 . s_axi_arvalid $end
$var wire 4 E s_axi_awaddr [3:0] $end
$var wire 1 0 s_axi_awvalid $end
$var wire 1 1 s_axi_bready $end
$var wire 1 2 s_axi_rready $end
$var wire 8 F s_axi_wdata [7:0] $end
$var wire 1 4 s_axi_wvalid $end
$var wire 8 G lfsr_data [7:0] $end
$var parameter 32 H ADDR_WIDTH $end
$var parameter 32 I DATA_WIDTH $end
$var parameter 1 J READ_DATA $end
$var parameter 1 K READ_IDLE $end
$var parameter 2 L WRITE_DATA $end
$var parameter 2 M WRITE_IDLE $end
$var parameter 2 N WRITE_RESP $end
$var reg 8 O ctrl_reg [7:0] $end
$var reg 1 P read_state $end
$var reg 1 ' s_axi_arready $end
$var reg 1 & s_axi_awready $end
$var reg 2 Q s_axi_bresp [1:0] $end
$var reg 1 $ s_axi_bvalid $end
$var reg 8 R s_axi_rdata [7:0] $end
$var reg 1 " s_axi_rvalid $end
$var reg 1 ! s_axi_wready $end
$var reg 8 S seed_reg [7:0] $end
$var reg 8 T taps_reg [7:0] $end
$var reg 4 U write_addr [3:0] $end
$var reg 2 V write_state [1:0] $end
$upscope $end
$scope module u_lfsr $end
$var wire 1 * clk $end
$var wire 1 @ enable $end
$var wire 1 > load $end
$var wire 1 6 rst $end
$var wire 8 W seed [7:0] $end
$var wire 8 X taps [7:0] $end
$var wire 1 Y lfsr_stuck_zero $end
$var wire 1 Z feedback $end
$var reg 8 [ lfsr_out [7:0] $end
$upscope $end
$upscope $end
$scope task axi_read $end
$var reg 4 \ addr [3:0] $end
$var reg 8 ] data [7:0] $end
$upscope $end
$scope task axi_write $end
$var reg 4 ^ addr [3:0] $end
$var reg 8 _ data [7:0] $end
$upscope $end
$upscope $end
$enddefinitions $end
$comment Show the parameter values. $end
$dumpall
b10 N
b0 M
b1 L
0K
1J
b1000 I
b100 H
b1000 C
b100 B
b1000 )
b100 (
$end
#0
$dumpvars
bx _
bx ^
bx ]
bx \
bx [
xZ
xY
bx X
bx W
bx V
bx U
bx T
bx S
bx R
bx Q
xP
bx O
bx G
b0 F
b0 E
b0 D
bx A
x@
bx ?
x>
bx =
bx <
bx ;
bx :
b0 9
b0 8
b0 7
16
bx 5
04
b0 3
02
01
00
b0 /
0.
b0 -
0,
bx +
0*
x'
x&
bx %
x$
bx #
x"
x!
$end
#5000
0>
0@
0Z
b0 :
b0 T
b0 X
b0 ;
b0 S
b0 W
b0 A
b0 O
b0 U
b0 %
b0 =
b0 Q
0$
0!
0&
b0 V
b0 #
b0 <
b0 R
0"
0'
0P
0Y
b11001 ?
b11001 G
b11001 [
1*
#10000
0*
#15000
1*
#20000
06
0*
1,
#25000
1!
1&
1'
1*
#30000
0*
#35000
1*
#40000
0*
#45000
b0 _
b0 ^
1*
#50000
0*
#55000
11
14
10
1*
#60000
0*
#65000
04
00
b1 V
0!
0&
1*
#70000
0*
#75000
b10 V
1$
1*
#80000
0*
#85000
b0 V
0$
01
b10100101 _
b100 ^
1*
#90000
0*
#95000
1!
1&
11
14
b10100101 3
b10100101 9
b10100101 F
10
b100 /
b100 8
b100 E
1*
#100000
0*
#105000
b1 V
0!
0&
b100 U
04
00
1*
#110000
0*
#115000
b10 V
1$
b10100101 ;
b10100101 S
b10100101 W
1*
#120000
0*
#125000
b0 V
0$
01
b10110100 _
b1000 ^
1*
#130000
0*
#135000
1!
1&
11
14
b10110100 3
b10110100 9
b10110100 F
10
b1000 /
b1000 8
b1000 E
1*
#140000
0*
#145000
b1 V
0!
0&
b1000 U
04
00
1*
#150000
0*
#155000
1Z
b10 V
1$
b10110100 :
b10110100 T
b10110100 X
1*
#160000
0*
#165000
b0 V
0$
01
b0 \
1*
#170000
0*
#175000
1!
1&
12
1.
1*
#180000
0*
#185000
b0 ]
0.
1P
1"
0'
1*
#190000
0*
#195000
0P
0"
02
b100 \
b0 +
1*
#200000
0*
#205000
1'
12
1.
b100 -
b100 7
b100 D
1*
#210000
0*
#215000
b10100101 ]
1P
1"
b10100101 #
b10100101 <
b10100101 R
0'
0.
1*
#220000
0*
#225000
0P
0"
02
b1000 \
b10100101 +
1*
#230000
0*
#235000
1'
12
1.
b1000 -
b1000 7
b1000 D
1*
#240000
0*
#245000
b10110100 ]
1P
1"
b10110100 #
b10110100 <
b10110100 R
0'
0.
1*
#250000
0*
#255000
0P
0"
02
b10 _
b0 ^
b10110100 +
1*
#260000
0*
#265000
1'
11
14
b10 3
b10 9
b10 F
10
b0 /
b0 8
b0 E
1*
#270000
0*
#275000
04
00
b1 V
0!
0&
b0 U
1*
#280000
0*
#285000
1>
b10 V
1$
b10 A
b10 O
1*
#290000
0*
#295000
b10100101 ?
b10100101 G
b10100101 [
b0 V
0$
01
1*
#300000
0*
#305000
1!
1&
1*
#310000
0*
#315000
b0 _
1*
#320000
0*
#325000
11
14
b0 3
b0 9
b0 F
10
1*
#330000
0*
#335000
04
00
b1 V
0!
0&
1*
#340000
0*
#345000
0>
b10 V
1$
b0 A
b0 O
1*
#350000
0*
#355000
b0 V
0$
01
b1100 \
1*
#360000
0*
#365000
1!
1&
12
1.
b1100 -
b1100 7
b1100 D
1*
#370000
0*
#375000
b10100101 ]
0.
1P
1"
b10100101 #
b10100101 <
b10100101 R
0'
1*
#380000
0*
#385000
0P
0"
02
b1 _
b10100101 +
1*
#390000
0*
#395000
1'
11
14
b1 3
b1 9
b1 F
10
1*
#400000
0*
#405000
04
00
b1 V
0!
0&
1*
#410000
0*
#415000
1@
b10 V
1$
b1 A
b1 O
1*
#420000
0*
#425000
0Z
b0 V
0$
b1001011 ?
b1001011 G
b1001011 [
01
b0 5
1*
#430000
0*
#435000
1Z
b10010110 ?
b10010110 G
b10010110 [
1!
1&
1*
#440000
0*
#445000
0Z
b101101 ?
b101101 G
b101101 [
1*
#450000
0*
#455000
1Z
b1011010 ?
b1011010 G
b1011010 [
12
1.
1*
#460000
0*
#465000
b1011010 ]
0Z
0.
1P
1"
b1011010 #
b1011010 <
b1011010 R
0'
b10110101 ?
b10110101 G
b10110101 [
1*
#470000
0*
#475000
1Z
b1101010 ?
b1101010 G
b1101010 [
0P
0"
02
b1 5
b1011010 +
1*
#480000
0*
#485000
1'
b11010101 ?
b11010101 G
b11010101 [
1*
#490000
0*
#495000
0Z
b10101011 ?
b10101011 G
b10101011 [
1*
#500000
0*
#505000
b1010110 ?
b1010110 G
b1010110 [
12
1.
1*
#510000
0*
#515000
1Z
b1010110 ]
0.
b10101100 ?
b10101100 G
b10101100 [
1P
1"
b1010110 #
b1010110 <
b1010110 R
0'
1*
#520000
0*
#525000
0P
0"
b1011001 ?
b1011001 G
b1011001 [
02
b10 5
b1010110 +
1*
#530000
0*
#535000
b10110011 ?
b10110011 G
b10110011 [
1'
1*
#540000
0*
#545000
0Z
b1100111 ?
b1100111 G
b1100111 [
1*
#550000
0*
#555000
b11001110 ?
b11001110 G
b11001110 [
12
1.
1*
#560000
0*
#565000
b11001110 ]
1Z
0.
1P
1"
b11001110 #
b11001110 <
b11001110 R
0'
b10011100 ?
b10011100 G
b10011100 [
1*
#570000
0*
#575000
0Z
b111001 ?
b111001 G
b111001 [
0P
0"
02
b11 5
b11001110 +
1*
#580000
0*
#585000
1'
b1110010 ?
b1110010 G
b1110010 [
1*
#590000
0*
#595000
1Z
b11100100 ?
b11100100 G
b11100100 [
1*
#600000
0*
#605000
b11001001 ?
b11001001 G
b11001001 [
12
1.
1*
#610000
0*
#615000
0Z
b11001001 ]
0.
b10010011 ?
b10010011 G
b10010011 [
1P
1"
b11001001 #
b11001001 <
b11001001 R
0'
1*
#620000
0*
#625000
0P
0"
b100110 ?
b100110 G
b100110 [
02
b100 5
b11001001 +
1*
#630000
0*
#635000
1Z
b1001100 ?
b1001100 G
b1001100 [
1'
1*
#640000
0*
#645000
0Z
b10011001 ?
b10011001 G
b10011001 [
1*
#650000
0*
#655000
b110010 ?
b110010 G
b110010 [
12
1.
1*
#660000
0*
#665000
b110010 ]
0.
1P
1"
b110010 #
b110010 <
b110010 R
0'
b1100100 ?
b1100100 G
b1100100 [
1*
#670000
0*
#675000
1Z
b11001000 ?
b11001000 G
b11001000 [
0P
0"
02
b101 5
b110010 +
1*
#680000
0*
#685000
0Z
1'
b10010001 ?
b10010001 G
b10010001 [
1*
#690000
0*
#695000
1Z
b100010 ?
b100010 G
b100010 [
1*
#700000
0*
#705000
b1000101 ?
b1000101 G
b1000101 [
12
1.
1*
#710000
0*
#715000
b1000101 ]
0.
b10001011 ?
b10001011 G
b10001011 [
1P
1"
b1000101 #
b1000101 <
b1000101 R
0'
1*
#720000
0*
#725000
0Z
0P
0"
b10111 ?
b10111 G
b10111 [
02
b110 5
b1000101 +
1*
#730000
0*
#735000
b101110 ?
b101110 G
b101110 [
1'
1*
#740000
0*
#745000
b1011100 ?
b1011100 G
b1011100 [
1*
#750000
0*
#755000
1Z
b10111000 ?
b10111000 G
b10111000 [
12
1.
1*
#760000
0*
#765000
b10111000 ]
0Z
0.
1P
1"
b10111000 #
b10111000 <
b10111000 R
0'
b1110001 ?
b1110001 G
b1110001 [
1*
#770000
0*
#775000
b11100010 ?
b11100010 G
b11100010 [
0P
0"
02
b111 5
b10111000 +
1*
#780000
0*
#785000
1'
b11000100 ?
b11000100 G
b11000100 [
1*
#790000
0*
#795000
1Z
b10001000 ?
b10001000 G
b10001000 [
1*
#800000
0*
#805000
b10001 ?
b10001 G
b10001 [
12
1.
1*
#810000
0*
#815000
b10001 ]
0.
b100011 ?
b100011 G
b100011 [
1P
1"
b10001 #
b10001 <
b10001 R
0'
1*
#820000
0*
#825000
0P
0"
b1000111 ?
b1000111 G
b1000111 [
02
b1000 5
b10001 +
1*
#830000
0*
#835000
0Z
b10001111 ?
b10001111 G
b10001111 [
1'
1*
#840000
0*
#845000
b11110 ?
b11110 G
b11110 [
1*
#850000
0*
#855000
1Z
b111100 ?
b111100 G
b111100 [
12
1.
1*
#860000
0*
#865000
b111100 ]
0Z
0.
1P
1"
b111100 #
b111100 <
b111100 R
0'
b1111001 ?
b1111001 G
b1111001 [
1*
#870000
0*
#875000
1Z
b11110010 ?
b11110010 G
b11110010 [
0P
0"
02
b1001 5
b111100 +
1*
#880000
0*
#885000
1'
b11100101 ?
b11100101 G
b11100101 [
1*
#890000
0*
#895000
b11001011 ?
b11001011 G
b11001011 [
1*
#900000
0*
#905000
b10010111 ?
b10010111 G
b10010111 [
12
1.
1*
#910000
0*
#915000
0Z
b10010111 ]
0.
b101111 ?
b101111 G
b101111 [
1P
1"
b10010111 #
b10010111 <
b10010111 R
0'
1*
#920000
0*
#925000
0P
0"
b1011110 ?
b1011110 G
b1011110 [
02
b0 _
b1010 5
b10010111 +
1*
#930000
0*
#935000
b10111100 ?
b10111100 G
b10111100 [
1'
11
14
b0 3
b0 9
b0 F
10
1*
#940000
0*
#945000
04
00
b1 V
0!
0&
b1111000 ?
b1111000 G
b1111000 [
1*
#950000
0*
#955000
1Z
0@
b11110000 ?
b11110000 G
b11110000 [
b10 V
1$
b0 A
b0 O
1*
#960000
0*
#965000
b0 V
0$
01
b1011010 _
b100 ^
1*
#970000
0*
#975000
1!
1&
11
14
b1011010 3
b1011010 9
b1011010 F
10
b100 /
b100 8
b100 E
1*
#980000
0*
#985000
b1 V
0!
0&
b100 U
04
00
1*
#990000
0*
#995000
b10 V
1$
b1011010 ;
b1011010 S
b1011010 W
1*
#1000000
0*
#1005000
b0 V
0$
01
b10001110 _
b1000 ^
1*
#1010000
0*
#1015000
1!
1&
11
14
b10001110 3
b10001110 9
b10001110 F
10
b1000 /
b1000 8
b1000 E
1*
#1020000
0*
#1025000
b1 V
0!
0&
b1000 U
04
00
1*
#1030000
0*
#1035000
b10 V
1$
b10001110 :
b10001110 T
b10001110 X
1*
#1040000
0*
#1045000
b0 V
0$
01
b10 _
b0 ^
1*
#1050000
0*
#1055000
1!
1&
11
14
b10 3
b10 9
b10 F
10
b0 /
b0 8
b0 E
1*
#1060000
0*
#1065000
b1 V
0!
0&
b0 U
04
00
1*
#1070000
0*
#1075000
1>
b10 V
1$
b10 A
b10 O
1*
#1080000
0*
#1085000
0Z
b0 V
0$
b1011010 ?
b1011010 G
b1011010 [
01
1*
#1090000
0*
#1095000
1!
1&
1*
#1100000
0*
#1105000
b1 _
1*
#1110000
0*
#1115000
11
14
b1 3
b1 9
b1 F
10
1*
#1120000
0*
#1125000
04
00
b1 V
0!
0&
1*
#1130000
0*
#1135000
0>
1@
b10 V
1$
b1 A
b1 O
1*
#1140000
0*
#1145000
b0 V
0$
b10110100 ?
b10110100 G
b10110100 [
01
b0 5
1*
#1150000
0*
#1155000
1Z
b1101000 ?
b1101000 G
b1101000 [
1!
1&
1*
#1160000
0*
#1165000
b11010001 ?
b11010001 G
b11010001 [
1*
#1170000
0*
#1175000
0Z
b10100011 ?
b10100011 G
b10100011 [
12
1.
1*
#1180000
0*
#1185000
b10100011 ]
0.
1P
1"
b10100011 #
b10100011 <
b10100011 R
0'
b1000110 ?
b1000110 G
b1000110 [
1*
#1190000
0*
#1195000
1Z
b10001100 ?
b10001100 G
b10001100 [
0P
0"
02
b1 5
b10100011 +
1*
#1200000
0*
#1205000
1'
b11001 ?
b11001 G
b11001 [
1*
#1210000
0*
#1215000
b110011 ?
b110011 G
b110011 [
1*
#1220000
0*
#1225000
0Z
b1100111 ?
b1100111 G
b1100111 [
12
1.
1*
#1230000
0*
#1235000
b1100111 ]
0.
b11001110 ?
b11001110 G
b11001110 [
1P
1"
b1100111 #
b1100111 <
b1100111 R
0'
1*
#1240000
0*
#1245000
1Z
0P
0"
b10011100 ?
b10011100 G
b10011100 [
02
b10 5
b1100111 +
1*
#1250000
0*
#1255000
b111001 ?
b111001 G
b111001 [
1'
1*
#1260000
0*
#1265000
b1110011 ?
b1110011 G
b1110011 [
1*
#1270000
0*
#1275000
b11100111 ?
b11100111 G
b11100111 [
12
1.
1*
#1280000
0*
#1285000
b11100111 ]
0Z
0.
1P
1"
b11100111 #
b11100111 <
b11100111 R
0'
b11001111 ?
b11001111 G
b11001111 [
1*
#1290000
0*
#1295000
b10011110 ?
b10011110 G
b10011110 [
0P
0"
02
b11 5
b11100111 +
1*
#1300000
0*
#1305000
1'
b111100 ?
b111100 G
b111100 [
1*
#1310000
0*
#1315000
1Z
b1111000 ?
b1111000 G
b1111000 [
1*
#1320000
0*
#1325000
b11110001 ?
b11110001 G
b11110001 [
12
1.
1*
#1330000
0*
#1335000
0Z
b11110001 ]
0.
b11100011 ?
b11100011 G
b11100011 [
1P
1"
b11110001 #
b11110001 <
b11110001 R
0'
1*
#1340000
0*
#1345000
1Z
0P
0"
b11000110 ?
b11000110 G
b11000110 [
02
b100 5
b11110001 +
1*
#1350000
0*
#1355000
b10001101 ?
b10001101 G
b10001101 [
1'
1*
#1360000
0*
#1365000
0Z
b11011 ?
b11011 G
b11011 [
1*
#1370000
0*
#1375000
b110110 ?
b110110 G
b110110 [
12
1.
1*
#1380000
0*
#1385000
b110110 ]
0.
1P
1"
b110110 #
b110110 <
b110110 R
0'
b1101100 ?
b1101100 G
b1101100 [
1*
#1390000
0*
#1395000
b11011000 ?
b11011000 G
b11011000 [
0P
0"
02
b101 5
b110110 +
1*
#1400000
0*
#1405000
1Z
1'
b10110000 ?
b10110000 G
b10110000 [
1*
#1410000
0*
#1415000
0Z
b1100001 ?
b1100001 G
b1100001 [
1*
#1420000
0*
#1425000
b11000010 ?
b11000010 G
b11000010 [
1*
#1430000
0*
#1435000
b10000100 ?
b10000100 G
b10000100 [
1*
#1440000
0*
#1445000
1Z
b1000 ?
b1000 G
b1000 [
1*
